*** Life<ConwayCell> 11x19 ***

Generation = 0, Population = 14.
.....*.......*.....
....*..............
*....*.....*..*....
..............*....
*..................
.................*.
...................
........*..........
...................
........*..*.......
................*..

Generation = 6, Population = 0.
...................
...................
...................
...................
...................
...................
...................
...................
...................
...................
...................

*** Life<ConwayCell> 10x16 ***

Generation = 0, Population = 6.
................
................
................
...*............
............*...
................
................
................
.*...........*..
...*.......*....

Generation = 10, Population = 0.
................
................
................
................
................
................
................
................
................
................

*** Life<ConwayCell> 7x19 ***

Generation = 0, Population = 10.
...................
.....*.............
...............*...
*........**........
...........*.......
.......*.......*...
..*...........*....

Generation = 8, Population = 0.
...................
...................
...................
...................
...................
...................
...................

*** Life<ConwayCell> 13x11 ***

Generation = 0, Population = 14.
.*.......*.
...*.......
........*..
...*.......
....*......
.....*.....
...*.......
..*........
...........
...........
...........
*..........
*..*...*.*.

Generation = 2, Population = 0.
...........
...........
...........
...........
...........
...........
...........
...........
...........
...........
...........
...........
...........

Generation = 4, Population = 0.
...........
...........
...........
...........
...........
...........
...........
...........
...........
...........
...........
...........
...........

*** Life<ConwayCell> 12x7 ***

Generation = 0, Population = 9.
.......
...*..*
....*..
.......
*......
*......
.......
.......
......*
...**..
.*.....
.......

Generation = 1, Population = 0.
.......
.......
.......
.......
.......
.......
.......
.......
.......
.......
.......
.......

Generation = 2, Population = 0.
.......
.......
.......
.......
.......
.......
.......
.......
.......
.......
.......
.......

Generation = 3, Population = 0.
.......
.......
.......
.......
.......
.......
.......
.......
.......
.......
.......
.......

Generation = 4, Population = 0.
.......
.......
.......
.......
.......
.......
.......
.......
.......
.......
.......
.......

Generation = 5, Population = 0.
.......
.......
.......
.......
.......
.......
.......
.......
.......
.......
.......
.......

Generation = 6, Population = 0.
.......
.......
.......
.......
.......
.......
.......
.......
.......
.......
.......
.......

*** Life<ConwayCell> 10x13 ***

Generation = 0, Population = 13.
.............
.............
....*........
.......*.*...
..*..........
.............
...*...*.*...
...**....*.*.
....*.*......
.............

Generation = 8, Population = 7.
.............
.............
.............
.............
.............
.............
...*.........
..*.*........
..*..*.......
...**........

*** Life<ConwayCell> 5x9 ***

Generation = 0, Population = 8.
.........
.......*.
......*..
.*.*...**
..*.*....

Generation = 10, Population = 4.
.........
.........
.........
..**.....
..**.....

Generation = 20, Population = 4.
.........
.........
.........
..**.....
..**.....

*** Life<ConwayCell> 11x5 ***

Generation = 0, Population = 5.
..*.*
.....
.....
.*...
.....
.....
.....
.....
..*..
....*
.....

Generation = 10, Population = 0.
.....
.....
.....
.....
.....
.....
.....
.....
.....
.....
.....

*** Life<ConwayCell> 5x8 ***

Generation = 0, Population = 5.
.....*..
.....*.*
........
......*.
.*......

Generation = 1, Population = 3.
......*.
......*.
......*.
........
........

*** Life<ConwayCell> 12x19 ***

Generation = 0, Population = 13.
..........*........
......*........*...
...*...............
.........*.........
...................
...................
....*.....*...*....
...................
...*...............
...........*.......
.....*.....*..*....
...................

Generation = 2, Population = 0.
...................
...................
...................
...................
...................
...................
...................
...................
...................
...................
...................
...................

Generation = 4, Population = 0.
...................
...................
...................
...................
...................
...................
...................
...................
...................
...................
...................
...................

Generation = 6, Population = 0.
...................
...................
...................
...................
...................
...................
...................
...................
...................
...................
...................
...................

Generation = 8, Population = 0.
...................
...................
...................
...................
...................
...................
...................
...................
...................
...................
...................
...................

Generation = 10, Population = 0.
...................
...................
...................
...................
...................
...................
...................
...................
...................
...................
...................
...................

Generation = 12, Population = 0.
...................
...................
...................
...................
...................
...................
...................
...................
...................
...................
...................
...................

Generation = 14, Population = 0.
...................
...................
...................
...................
...................
...................
...................
...................
...................
...................
...................
...................

*** Life<ConwayCell> 13x12 ***

Generation = 0, Population = 6.
............
..*.........
...........*
...*........
............
............
....*.....*.
............
............
...*........
............
............
............

Generation = 7, Population = 0.
............
............
............
............
............
............
............
............
............
............
............
............
............
