10

16 7
17
11 1
10 5
5 0
9 6
4 5
13 1
4 5
9 3
13 0
14 1
10 3
10 4
9 4
3 1
11 4
13 1
15 1
12 7

6 4
6
3 2
2 3
1 2
1 3
4 2
4 3
11 4

15 19
17
7 2
1 1
12 6
2 0
8 3
9 2
12 17
11 11
9 2
6 18
11 17
0 18
5 3
8 16
12 7
1 0
11 0
1 2

24 15
9
9 3
7 6
21 3
2 8
12 13
20 14
8 11
7 8
5 13
3 6

5 2
7
2 0
3 1
3 1
2 1
0 1
2 1
4 1
7 19

10 21
7
1 7
0 20
7 10
5 11
9 3
3 3
6 1
17 17

25 23
5
14 20
10 2
24 19
5 0
23 22
3 12

12 10
18
10 6
11 7
10 8
3 9
3 5
9 4
3 7
9 0
7 9
10 0
2 6
4 9
0 5
6 9
4 8
4 6
1 4
6 7
17 6

12 16
9
8 14
10 4
9 0
1 4
8 2
4 9
3 13
10 2
11 6
20 5

25 21
6
18 13
12 7
0 4
5 16
21 1
20 12
20 11
