10

3 7
11
2 5
2 2
2 3
0 2
1 3
2 0
2 6
2 4
1 5
1 5
0 1
10 5

3 2
13
1 1
0 1
1 1
2 1
1 1
2 0
1 1
1 0
1 1
1 0
0 1
2 1
2 0
2 2

12 12
12
3 9
9 2
1 3
0 3
2 7
3 8
6 4
4 7
7 4
8 1
9 1
9 11
14 2

6 3
14
0 1
5 1
4 1
2 2
3 2
5 1
5 1
0 0
4 2
1 2
2 2
2 2
5 1
5 0
1 2

7 9
10
0 5
4 5
1 2
2 6
2 0
0 1
2 6
0 5
4 8
4 8
4 1

8 10
13
5 7
5 0
4 5
2 3
5 4
5 8
2 2
3 1
5 3
5 4
7 1
7 5
3 1
9 3

8 7
10
6 6
6 2
3 0
5 5
7 1
4 1
2 5
3 0
6 1
7 2
9 3

8 11
13
6 9
0 1
5 5
6 3
7 2
4 2
4 8
5 3
7 8
1 5
5 10
0 4
7 3
13 4

6 6
10
4 5
1 5
1 3
4 4
3 5
5 5
0 3
1 1
1 5
0 0
8 1

3 4
11
0 1
1 3
2 0
0 0
1 2
2 2
0 1
1 0
2 0
2 0
0 0
3 1
