8

37 35
24
23 10
1 28
16 31
36 17
8 1
21 18
9 21
25 29
1 23
31 13
29 6
21 1
5 34
18 3
25 19
30 1
2 33
34 3
18 24
30 2
13 17
21 19
23 18
16 8
142 96

19 1
27
7 0
17 0
4 0
10 0
11 0
17 0
15 0
8 0
9 0
3 0
18 0
7 0
6 0
10 0
0 0
5 0
6 0
1 0
17 0
7 0
6 0
4 0
1 0
2 0
15 0
12 0
11 0
68 116

9 6
6
2 1
6 4
7 0
1 3
3 1
2 2
19 197

50 28
5
47 7
14 8
48 24
30 15
8 22
43 135

25 44
12
12 2
0 30
21 30
10 10
18 0
16 4
13 19
7 23
5 25
16 38
16 9
7 19
102 28

15 9
15
6 6
8 0
0 6
11 6
14 8
14 0
11 8
1 1
12 0
14 8
12 0
5 2
4 5
1 1
14 8
56 70

16 3
16
6 0
5 0
12 1
4 2
3 1
14 0
8 2
7 0
1 0
2 1
3 1
11 0
12 2
13 2
8 1
11 2
24 81

36 32
7
10 10
7 29
32 7
3 19
11 23
11 16
31 5
121 70
