*** Life<Cell> 37x35 ***

Generation = 0, Population = 24.
-----------------------------------
-----------------------0----0------
---------------------------------0-
-----------------------------------
-----------------------------------
----------------------------------0
-----------------------------------
-----------------------------------
-0---------------------------------
---------------------0-------------
-----------------------------------
-----------------------------------
-----------------------------------
-----------------0-----------------
-----------------------------------
-----------------------------------
--------0----------------------0---
-----------------------------------
---0--------------------0----------
-----------------------------------
-----------------------------------
-0----------------00---------------
-----------------------------------
----------0-------0----------------
-----------------------------------
-------------------0---------0-----
-----------------------------------
-----------------------------------
-----------------------------------
------0----------------------------
-00--------------------------------
-------------0---------------------
-----------------------------------
-----------------------------------
---0-------------------------------
-----------------------------------
-----------------0-----------------

Generation = 96, Population = 173.
**.....***......*..................
**.......*..***.*..................
........**..***...*................
........**..**..**.*...............
........**.........*...............
......**..*....*.*.*.......-.......
.....*****......*.............*....
...*..*......................*.*...
.............................*.*...
....**........................*....
.****..............................
..**...............................
........**.........................
.**.....**.........................
...............**..................
..............*..*.................
...............**...........**.....
**.........................*..*....
**.........................*.......
............................*...*.*
............................*.....*
.........***.....**..............**
**...............**......*...***.*.
**...........*..........*.*...**...
............*.*.........*.*........
...***......*..*.........*.........
...*..*......*.*...................
..*...*.......****............*....
..**...*.......**.*..........*.....
..*.***.........*..*..........*....
..**.*.**........*.**..............
.......**..........**..............
.......*........**.**..............
.*.....*...........................
.**.***........*..*................
...***.........**..................
-...*..............................

*** Life<Cell> 19x1 ***

Generation = 0, Population = 16.
0
0
0
0
0
0
0
0
0
0
0
0
0
-
-
0
-
0
0

*** Life<Cell> 9x6 ***

Generation = 0, Population = 6.
------
---0--
-00---
-0----
------
------
----0-
0-----
------

*** Life<Cell> 50x28 ***

Generation = 0, Population = 5.
----------------------------
----------------------------
----------------------------
----------------------------
----------------------------
----------------------------
----------------------------
----------------------------
----------------------0-----
----------------------------
----------------------------
----------------------------
----------------------------
----------------------------
--------0-------------------
----------------------------
----------------------------
----------------------------
----------------------------
----------------------------
----------------------------
----------------------------
----------------------------
----------------------------
----------------------------
----------------------------
----------------------------
----------------------------
----------------------------
----------------------------
---------------0------------
----------------------------
----------------------------
----------------------------
----------------------------
----------------------------
----------------------------
----------------------------
----------------------------
----------------------------
----------------------------
----------------------------
----------------------------
----------------------------
----------------------------
----------------------------
----------------------------
-------0--------------------
------------------------0---
----------------------------

*** Life<Cell> 25x44 ***

Generation = 0, Population = 12.
------------------------------0-------------
--------------------------------------------
--------------------------------------------
--------------------------------------------
--------------------------------------------
-------------------------0------------------
--------------------------------------------
-------------------0---0--------------------
--------------------------------------------
--------------------------------------------
----------0---------------------------------
--------------------------------------------
--0-----------------------------------------
-------------------0------------------------
--------------------------------------------
--------------------------------------------
----0----0----------------------------0-----
--------------------------------------------
0-------------------------------------------
--------------------------------------------
--------------------------------------------
------------------------------0-------------
--------------------------------------------
--------------------------------------------
--------------------------------------------

Generation = 28, Population = 438.
.*.1-*-.0**...-*1-0--0----01-----1----------
-1--*--*.0--011.---1-010---.--00-1---010-0-0
--1*.-.1--***.-.*-11-----0*-*110--.---------
--.---1*-..-.1-.-10----1-0--0*---.-10----0-0
*-0*1-**..*..-..*.-1---01-**00.-..---0.-----
--*10-*...**-.10****1101.**.--*-..1.1----110
*-.....*..***.--1-00--1*1-.*.0..*---*1.-----
0..*..*..*.*..-10000-0011-*.1.*.1.*----0-0-0
11-*.**..-1...**-**1-*-1.*-**0.0*.1-1*---1--
1-**.*....*...-.----111..-..-..*1-*-.-.1-0-0
*-*.**.....-..*1****.1.---...*..-.-*0*--0*-1
0.....*1.......*1.-..*0*-.*.-......-*-.-0*0*
.*............***..***-*.0-.-**.-.--*---0-.0
***.**..*1-....**.....1*.*1.......**-0*0--**
****.........*..1****.-.1.**.**1..***-*--..-
*..-.....*...*....**-*.-.*.*--..***1*..-1-1-
*.**........**....-..*..--.0.-*..1*-.-.1.1.-
*...*********.1*.....01-..0...*.....0...11-.
1*-...*.*****.*.*--...0-.***11.0--**-*11*-.*
.*.**........0.....**...-**.0.**.1*11-.-.-..
1..**..*1.-.*1....*..01.-01-.-..-*-**.*-*..1
0-.0...--*-**.1.***..****.-1.1*0*0*-..*-.*.0
****..**...-**...*.1*..*.**1.-0-.0-**-.1....
*.*.*...*-...**...*.*.**11**.-0-0---*0.*...-
..-*......-.---.-1-*.-00.--1-0.0--*11-.1.-..

Generation = 56, Population = 238.
...............***...*..*....******.....**..
**..**...-..-..***..*........*...***....**1.
.***.*..........*....*....*.....****.**.*...
.*...*........**......*.......*0.****.**....
..-.*..........**......***....***.**.*.*....
...*..............................**.....*..
...........................*......*.....*...
-....................-...**.......*....***..
....................*.............*...-*.**0
...............**.**.....**.**.*..*.....*...
...........-..*..*.**1......**.*.......****.
....................*....**.**..**.....**.*.
...........*.*....**....*.*.**.......-.***.*
..........***..**.*...*.*..***..........*..*
.....*.....**......*....*.............*..*.*
........*..........*.....*............*****.
.........*...........**...*.***......**..*..
.***.....*....-...........*..........**.**..
.***.**.**...........................**.**..
*.*..**.**............................*.**..
.......**..............*..........*....***..
.......**..............*....**..........*.*.
........*..............*......**......**.***
.......*.................*..**..*.*...**...*
.........................*.............*****

Generation = 84, Population = 147.
.......*.....*..............................
..**...*.....**.*.**........................
..**....**......**.*........................
..........**....*..*...........-............
..........**...*.............*..............
.**............*............**..............
.*.*...........*............*..*.....**.....
1*.*........................*.*.*...........
..*.......**............**...*..**.........-
.......****.*....*.*....***...**............
......*.*.*.**..*****.*....*................
........*.*.*...*...*..****.................
.........***....****...***...........-......
................*..*........................
................*.*.........................
................*..*........................
..***............**........**...............
..*****.......-............***.**...........
.**..**...................*....***..........
......**...................**.....*.........
..........................*.**..***.........
...........................***......*.......
................................**.**.......
................................*..*........
..................................*.........

*** Life<Cell> 15x9 ***

Generation = 0, Population = 11.
------0--
-0-------
---------
---------
-----0---
--0------
------0--
---------
0--------
---------
---------
------0-0
0--------
---------
0-------0

*** Life<Cell> 16x3 ***

Generation = 0, Population = 15.
---
0--
-0-
-0-
--0
0--
0--
0--
-00
---
---
0-0
-00
--0
0--
---

*** Life<Cell> 36x32 ***

Generation = 0, Population = 7.
--------------------------------
--------------------------------
--------------------------------
-------------------0------------
--------------------------------
--------------------------------
--------------------------------
-----------------------------0--
--------------------------------
--------------------------------
----------0---------------------
----------------0------0--------
--------------------------------
--------------------------------
--------------------------------
--------------------------------
--------------------------------
--------------------------------
--------------------------------
--------------------------------
--------------------------------
--------------------------------
--------------------------------
--------------------------------
--------------------------------
--------------------------------
--------------------------------
--------------------------------
--------------------------------
--------------------------------
--------------------------------
-----0--------------------------
-------0------------------------
--------------------------------
--------------------------------
--------------------------------

Generation = 70, Population = 131.
**.....-*......-...-...........-
**.....*.*........-.........***.
.......***......................
................................
..*.............................
-*..............................
**.*..**........................
..***.**........................
...*...*.............-..........
...*..*.........................
....***..................*......
.............-..........*.*.....
.......................*.**.....
......................**.*......
.......................**.......
......................*.*.......
.....***..........*...**........
.................*.***.*........
.........*...........*..*.......
.........*.......***..***.......
.........*............***....**.
.............................**.
.....***........................
.**.............................
.**..*......-...................
....***.........**..........**..
...*..*........*..**........**..
.****..*......*...**............
...***.**.......................
.....*.*.....*...*............-.
......*......**..*..........**..
................*....*......**..
.....................*.*........
.....................*..*.......
......................*..*......
......-................**.......
