10

20 1
10
19 0
7 0
3 0
8 0
9 0
16 0
16 0
15 0
6 0
17 0
45 10

16 12
10
8 2
8 4
12 2
6 6
13 2
3 9
11 8
14 4
2 8
4 6
16 15

9 8
10
2 7
6 2
7 5
4 0
1 5
6 6
1 7
1 1
2 0
3 6
22 7

18 18
10
16 3
8 7
15 9
13 5
0 12
7 11
13 10
6 17
14 5
9 1
23 19

2 3
10
1 1
1 0
1 2
1 1
0 2
1 0
0 0
1 0
1 0
0 1
7 17

7 10
10
3 2
6 0
1 2
0 7
1 2
3 0
4 6
3 5
6 9
6 6
39 21

14 16
10
11 8
6 2
9 13
9 12
6 0
12 7
0 0
2 1
4 9
13 14
12 10

20 13
10
7 2
15 6
3 9
9 0
13 1
7 11
12 1
0 7
3 0
19 10
18 22

10 19
10
1 5
0 8
1 11
8 9
3 10
0 17
8 10
8 5
7 9
2 7
29 12

18 20
10
1 6
17 3
0 0
13 1
9 15
15 8
12 7
9 5
15 6
7 13
29 6
