10

9 7
10
8 2
1 0
5 3
0 5
3 6
1 4
5 6
0 6
6 1
6 5
3 1

1 14
10
0 1
0 3
0 3
0 7
0 2
0 12
0 4
0 7
0 4
0 9
3 1

13 15
10
7 3
0 13
0 2
5 13
1 0
1 10
1 6
8 6
12 11
10 14
3 1

20 5
10
17 0
18 0
9 4
7 3
19 2
11 1
13 4
15 0
13 2
14 0
3 1

19 20
10
12 5
16 5
12 0
0 5
16 5
5 12
1 13
12 11
18 7
4 5
3 1

6 20
10
5 13
0 10
2 4
0 7
2 8
2 4
1 7
2 12
2 3
0 19
3 1

12 5
10
5 2
2 2
1 2
9 3
11 2
1 3
3 0
2 3
8 4
9 4
3 1

3 15
10
0 3
0 0
0 7
0 8
0 12
0 9
0 0
2 5
0 8
0 4
3 1

17 6
10
2 0
5 2
14 5
14 1
16 1
5 5
10 4
0 4
1 3
6 0
3 1

15 9
10
3 2
13 7
3 4
13 5
9 4
14 8
6 2
1 0
3 3
14 5
3 1
