*** Life<Cell> 5x10 ***

Generation = 0, Population = 17.
00---000--
-0--0-0--0
---0--0--0
----00-0-0
--0-------

Generation = 5, Population = 23.
11.-*-*1.-
*-.0-.11**
1-1-*-.-1-
-.-.*.-00*
-*0.-0-*-.

Generation = 10, Population = 22.
-**1.-*-*.
**..*....*
***..-.-.*
1.-..*--.*
.**.*1-.1*

Generation = 15, Population = 17.
***..**-..
**..*..*..
.......0..
..1..**-..
...***1...

Generation = 20, Population = 12.
....***-..
........*.
....**...*
..1..*..*.
......1*..

*** Life<Cell> 1x19 ***

Generation = 0, Population = 12.
000-00000-----00-00

Generation = 5, Population = 3.
--1--1-..--0..-.-..

Generation = 10, Population = 4.
**1..1-..---..-.-..

Generation = 15, Population = 1.
.....-0..---..-.-..

Generation = 20, Population = 1.
.....1-..---..-.-..

*** Life<Cell> 5x14 ***

Generation = 0, Population = 17.
--0------0-0-0
-00-------0---
------0-0----0
-0-0-----0-0--
00-------0----

Generation = 5, Population = 32.
-**011-1-0-.--
*.*0-*0-*1--1-
-*--*-----*-*-
0---0-0--*-10*
1.*1--.11.-*-.

Generation = 10, Population = 30.
1***1**.-1*.--
..*1*..-*1--.*
.*-0...--..-.-
1-**.1-.0..-**
...*10..**-*-.

Generation = 15, Population = 25.
........1...10
.**1...***1-.*
..*-...1..**.-
-..**.-*1*.*..
....*...***.-.

Generation = 20, Population = 30.
******..**.**-
*.....*.*.1*..
.**-**.......1
-.*...-....*..
..*******...0.

*** Life<Cell> 2x2 ***

Generation = 0, Population = 4.
00
00

Generation = 5, Population = 0.
--
--

Generation = 10, Population = 0.
--
--

Generation = 15, Population = 0.
--
--

Generation = 20, Population = 0.
--
--

*** Life<Cell> 6x12 ***

Generation = 0, Population = 18.
----0--00---
---------0-0
-0----0-0-0-
--0----0--0-
---0-----0--
-----00-00--

Generation = 5, Population = 40.
*.00.11*-.-1
0-1-0-101.-0
-1*-0---11.0
---*0--0*.-*
000-*1...-1*
0-11-***-0-1

Generation = 10, Population = 26.
.**-....1.-.
.1-1..*.*.1-
1.*--.*-...1
111.*.*...1.
---.*-**.*..
..-.1...111.

Generation = 15, Population = 24.
.******...-.
...-...*..11
...--..***..
*-**.*......
--...1.....*
.*...**.***.

Generation = 20, Population = 16.
...*......**
..*.*.....**
.*..........
***...*.....
.-..*-*.....
.....**.....

*** Life<Cell> 11x18 ***

Generation = 0, Population = 20.
----------0------0
-----0------0-0---
-------0----------
------0--0-----0--
---0-------0-----0
-00----0-------0--
--------0---------
---0---0----------
------------------
------------------
-------------0----

Generation = 5, Population = 94.
----0----011*-1*0-
-0-101.**1.0.0*.*0
--0*0.0011.--00--*
--*-1.0-.01--.1-0*
-*-----1-.*--1--0-
*-----.0--00*--10*
00-1-0-*00---*-0-1
--11-01----*--0-00
-0-*0-0--001--0-0-
01*---0--0-0-00-0-
-00-----110----00-

Generation = 10, Population = 87.
1--.-11***-..***-0
0--1-*...*.-.-**.-
11-.*.-*.*.-.*---.
-0.1****.1-.0*.0-.
1*01.00....11*1*0-
..*.1**-..-1*.-.*.
-.-.1*-*-.**-.1.-.
1-..0*.1-0..*0-*1-
1*-..--*0--.**0-1*
-..--*....0.*.*.--
--1-0--*..**-11.1.

Generation = 15, Population = 74.
**-..1....-.....0.
.1.-1*.......-...*
...**.**...-...--.
--.-...***-.-..11.
.*.**..*.*.*-.-.-1
..**-..-.*-.**0**.
.**.**.**...-.**1.
.-**1**.*0..*-*.*-
-..*.--..*1.**.01*
...--****...**..1.
0..-0....**.-.****

Generation = 20, Population = 46.
**-.......-.....-.
...--........-....
...*.......-...--.
*-.*........0..*..
...*....**.***-.*1
..**...*..........
.**.........-.....
*..*...*..**.*.*.-
*...*-1**....*.*1*
.**1-....*..*...-.
-..--*......-***.*

*** Life<Cell> 9x11 ***

Generation = 0, Population = 19.
-----0-----
---0--0----
--0--00----
--------0-0
---0-----0-
-0-----00--
-0--00-----
-----------
----0----00

Generation = 5, Population = 46.
0-..01*10-0
---1.1---01
-010-.-11.1
0-01--11-0-
-0-0*-1-00-
--0.--*1*--
--...-*----
-*-00--1-0*
*1-**.--**-

Generation = 10, Population = 54.
1-.....*-*-
*.-*..--..*
0**1..0-.**
*00.0**101.
-1--**11.0-
---.****.--
1-****.**1-
-.100**1*0*
**-..*-..**

Generation = 15, Population = 31.
**.....**.1
*.-..*.-.*.
*..-...**..
..-.1...0..
1..-****.-.
-.-*..**..1
*1**.....-*
*.11.....-.
.*....-....

Generation = 20, Population = 27.
..........-
*.*....0...
.*.-....*..
.*0....*1..
-..0*****-.
-...*.***..
.1..*....1.
***1.....-.
.*....-....

*** Life<Cell> 8x6 ***

Generation = 0, Population = 17.
0-0-0-
-0---0
0----0
0-00--
---0--
-0-0--
---00-
0-0---

Generation = 5, Population = 23.
--.1--
-00--.
.*0-1*
1-*1*0
.*----
--1--*
-*0-1*
110-*-

Generation = 10, Population = 22.
*-.--1
.0-1..
.***1.
.*.1.1
*..-.-
*1.0-.
*..1*.
.*01.*

Generation = 15, Population = 10.
...-..
..-...
......
....*.
...*.*
**.*-*
..***.
..--..

Generation = 20, Population = 10.
...-..
..-...
...*..
..***.
.*....
**..-.
....*.
..1.*.

*** Life<Cell> 9x12 ***

Generation = 0, Population = 18.
-------0----
---------0--
0-0---------
0-----000---
---------0--
0-------0---
-0-0-00--0--
--0--------0
------------

Generation = 5, Population = 45.
.-1*00---*-*
*0---10-**-1
.-.1.---0*-0
1----..-----
---101**00-.
00-0-00-01--
-0---.1-1---
0----00--*-*
0-0--..00--0

Generation = 10, Population = 51.
.1..0--0.*-*
*.----.-..-*
*.*1.0---*0.
*0**.*.11---
1-.--**..1-*
*-.*.0*1.*.-
**-0-..-*0*1
--1-..*--*0*
.1000.*1-.**

Generation = 15, Population = 36.
.1*.-0*1..-.
..-0*.*-..1.
..*1..*.-.-*
.-**.*...-**
-0.10*...*-.
.0...-***..-
..1....-*0.-
1-.-*..1*.-.
..1-....1...

Generation = 20, Population = 33.
..***....*1*
.*-*.**-.*..
.******.-..*
.0.......-*.
.-*.-..*..-.
*-...-.*...-
..-*.......-
-**..*.**.-.
..*....**...

*** Life<Cell> 15x3 ***

Generation = 0, Population = 14.
-0-
-00
---
---
0--
---
---
---
0--
-00
--0
-00
-0-
-0-
00-

Generation = 5, Population = 24.
0*-
*1.
0--
0-0
1*1
000
--*
-.*
*--
-.-
-*1
*0-
-*-
-0*
1-.

Generation = 10, Population = 21.
0**
*.*
-1.
0.*
..*
1.*
.**
-..
..1
.*1
1..
.--
*.-
-1*
--*

Generation = 15, Population = 19.
-*.
*.*
*-*
..*
*.*
*.*
..*
**.
*..
*..
*..
.--
..*
-**
.-.

Generation = 20, Population = 5.
-..
...
.-.
...
...
...
...
.*.
.*.
.*.
...
.-.
*..
*..
...
