9

19 20
11
7 6
6 11
15 17
12 8
12 14
5 12
8 2
10 18
5 12
12 7
3 0
10 10

2 21
11
0 16
0 11
1 14
1 20
1 0
0 17
0 12
0 18
0 17
0 10
0 17
10 10

17 20
11
6 13
3 12
9 10
5 8
16 8
4 2
14 0
3 1
15 13
0 10
2 0
10 10

17 25
11
6 4
9 21
7 10
8 10
10 18
14 24
5 21
6 15
11 7
12 9
11 0
10 10

2 20
11
1 14
1 4
1 6
1 12
0 9
1 2
0 17
0 19
0 3
0 17
1 4
10 10

11 7
11
6 2
2 4
6 0
2 4
5 2
5 0
9 1
8 6
8 1
8 0
3 4
10 10

16 11
11
5 5
11 10
8 0
8 7
11 3
8 6
0 10
0 1
14 8
8 9
8 3
10 10

3 23
11
1 19
2 17
0 4
0 12
0 15
2 22
2 20
1 1
2 11
0 22
1 2
10 10

15 9
11
2 5
3 2
4 5
4 0
1 8
13 4
2 2
9 4
13 1
8 4
8 7
10 10
